COMPSCIX 415.2 Homework 5/Midterm
…
2. mutate(diamonds, price_per_carat = price/carat)

3. I noticed that some of the lower valued carat diamonds have a higher price, which is counterintuitive. I think we can trust these numbers, but we still need to be cautious with the correlation between price and carat.

filter(diamonds, price > 10000 & carat < 1.5 )

## # A tibble: 834 x 10
##    carat cut       color clarity depth table price     x     y     z
##    <dbl> <ord>     <ord> <ord>   <dbl> <dbl> <int> <dbl> <dbl> <dbl>
##  1  1.03 Ideal     E     VVS2     60.6  59.0 10003  6.50  6.53  3.95
##  2  1.23 Very Good G     VVS2     60.6  55.0 10004  6.93  7.02  4.23
##  3  1.25 Ideal     F     VS2      61.6  55.0 10006  6.93  6.96  4.28
##  4  1.21 Very Good F     VS1      62.3  58.0 10009  6.76  6.85  4.24
##  5  1.01 Fair      D     SI2      64.6  58.0 10011  6.25  6.20  4.02
##  6  1.05 Ideal     F     VVS2     60.5  55.0 10011  6.67  6.58  4.01
##  7  1.35 Premium   G     VS1      62.1  59.0 10012  7.06  7.02  4.37
##  8  1.13 Ideal     F     VS1      60.9  57.0 10016  6.73  6.76  4.11
##  9  1.21 Premium   F     VS1      62.6  59.0 10018  6.81  6.76  4.25
## 10  1.01 Very Good F     VVS1     62.9  57.0 10019  6.35  6.41  4.01
## # ... with 824 more rows
…
2.There are 46 cities represented.

select(txhousing, city)

## # A tibble: 8,602 x 1
##    city   
##    <chr>  
##  1 Abilene
##  2 Abilene
##  3 Abilene
##  4 Abilene
##  5 Abilene
##  6 Abilene
##  7 Abilene
##  8 Abilene
##  9 Abilene
## 10 Abilene
## # ... with 8,592 more rows

txhousing %>% count(city)

## # A tibble: 46 x 2
##    city                      n
##    <chr>                 <int>
##  1 Abilene                 187
##  2 Amarillo                187
##  3 Arlington               187
##  4 Austin                  187
##  5 Bay Area                187
##  6 Beaumont                187
##  7 Brazoria County         187
##  8 Brownsville             187
##  9 Bryan-College Station   187
## 10 Collin County           187
## # ... with 36 more rows
…
filter(txhousing, sales == NA,)

## # A tibble: 0 x 9
## # ... with 9 variables: city <chr>, year <int>, month <int>, sales <dbl>,
## #   volume <dbl>, median <dbl>, listings <dbl>, inventory <dbl>,
## #   date <dbl>

6.

txhousing500 <-filter(txhousing, sales > 500)
select(txhousing500, city, month, sales)

## # A tibble: 1,883 x 3
##    city      month sales
##    <chr>     <int> <dbl>
##  1 Arlington     8   507
##  2 Arlington     5   536
##  3 Arlington     6   534
##  4 Arlington     8   505
##  5 Arlington     5   503
##  6 Arlington     7   509
##  7 Arlington     5   502
##  8 Arlington     7   524
##  9 Arlington     8   531
## 10 Arlington     5   527
## # ... with 1,873 more rows
…
